de/kreuzwerker/cdc/messagingapp/UserServiceClient.class
de/kreuzwerker/cdc/messagingapp/MessagingApplication.class
de/kreuzwerker/cdc/messagingapp/Friend.class
de/kreuzwerker/cdc/messagingapp/User$UserBuilder.class
de/kreuzwerker/cdc/messagingapp/User.class
